49
65
105
121
123
133
145
169
183
185
203
217
265
286
289
319
325
341
361
377
385
406
561
645
697
721
781
793
805
861
889
925
1681
1729
2449
2465
2572
2632
2735
2821
4537
4564
4577
10585
75361
162401
172081
334153
399001
449065
488881
512461
530881
656601
670033
838201
997633
1050985
1615681
1773289
1857241
2113921
2433601
2455921
2704801
3057601
3224065
3581761
3664585
3828001
4463641
4903921
173032371289
973694665856161